47974335C57D05F8CFB4401FF9675186.cache.js
user.agent safari

5580C4CFF402106F8364C33FF57EC00F.cache.js
user.agent ie9

7D93AB5A033EE9A1AFB0E26DFA301B76.cache.js
user.agent ie10

C8CB0AD40B11B6BFCF9F988727FAFD2B.cache.js
user.agent ie8

E740F5FEA67A38C40A87AD4A236D9209.cache.js
user.agent gecko1_8

Devmode:devmode.js